%YAML 1.1
%TAG !u! tag:unity3d.com,2011:
--- !u!1045 &1
EditorBuildSettings:
  m_ObjectHideFlags: 0
  serializedVersion: 2
  m_Scenes:
  - enabled: 1
    path: Assets/SCENES/Scn_Title.unity
    guid: fd3c6cf9af1cea24e9f388be9b0e81e0
  - enabled: 1
    path: Assets/SCENES/Experimental_01.unity
    guid: 362f839f00a151648a847a23778d4430
  - enabled: 1
    path: Assets/SCENES/Scn_Win.unity
    guid: e911f8d9359db4f9b9282c2041fa09cc
